@startuml
  namespace org.harrismirza.argumentExplorer.graphCondensation {
    class org.harrismirza.argumentExplorer.graphCondensation.GraphCondensationController {
        ~ condensationAttributeColumnMap : Map<Integer, String>
        ~ condensationComponentsMap : Map<Integer, Set<Object>>
        ~ condensationExpandedComponentsMap : Map<Integer, Set<Object>>
        ~ condensationMap : Map<Integer, Integer>
        ~ computeNodeLevels()
        ~ condenseGraph()
        ~ viewComponent()
    }
  }
  

  namespace org.harrismirza.argumentExplorer.graphCondensation {
    class org.harrismirza.argumentExplorer.graphCondensation.GraphCondensationController.NodeLevelComputation {
        - condensationGraph : DirectedGraph
        - levels : Map<Object, Integer>
        - trivialNodes : Set<Object>
        - NodeLevelComputation()
        - computeNodeLevel()
        - getNodeLevels()
    }
  }
  

  namespace org.harrismirza.argumentExplorer.graphCondensation {
    class org.harrismirza.argumentExplorer.graphCondensation.GraphCondensationTopComponent {
        - attributeComboBox : JComboBox<String>
        - componentList : JList<Object>
        - nodeLevelCalculationButton : JButton
        - toggleExpandComponentButton : JButton
        - viewComponentButton : JButton
        - workspaceNameLabel : JLabel
        + GraphCondensationTopComponent()
        - initComponents()
        - refreshWorkspace()
    }
  }
  

  namespace org.harrismirza.argumentExplorer.graphCondensation {
    class org.harrismirza.argumentExplorer.graphCondensation.NodeAttributeFilterBuilder {
        ~ comparisonColumn : Column
        ~ filterValue : Object
        + destroy()
        + getCategory()
        + getDescription()
        + getFilter()
        + getIcon()
        + getName()
        + getPanel()
        + setOptions()
    }
  }
  

  org.harrismirza.argumentExplorer.graphCondensation.GraphCondensationController +-down- org.harrismirza.argumentExplorer.graphCondensation.GraphCondensationController.NodeLevelComputation
  org.harrismirza.argumentExplorer.graphCondensation.GraphCondensationTopComponent -up-|> org.openide.windows.TopComponent
  org.harrismirza.argumentExplorer.graphCondensation.GraphCondensationTopComponent o-- org.harrismirza.argumentExplorer.graphCondensation.GraphCondensationController : condensationController
  org.harrismirza.argumentExplorer.graphCondensation.NodeAttributeFilterBuilder .up.|> org.gephi.filters.spi.FilterBuilder

@enduml
